…
> 
> cleanEx()
> nameEx("summarize_table")
> ### * summarize_table
> 
> flush(stderr()); flush(stdout())
> 
> ### Name: summarize_table
> ### Title: Summarize Data Frame by Column Type
> ### Aliases: summarize_table
> 
> ### ** Examples
> 
> summarize_table(mtcars)
# A tibble: 11 × 8
  Variable Type      Mean Median      SD   Min    Max NA_Count
  <chr>    <chr>    <dbl>  <dbl>   <dbl> <dbl>  <dbl>    <int>
1 mpg      Numeric  20.1   19.2    6.03  10.4   33.9         0
2 cyl      Numeric   6.19   6      1.79   4      8           0
3 disp     Numeric 231.   196.   124.    71.1  472           0
4 hp       Numeric 147.   123     68.6   52    335           0
5 drat     Numeric   3.60   3.70   0.535  2.76   4.93        0
6 wt       Numeric   3.22   3.32   0.978  1.51   5.42        0
# ℹ 5 more rows
…
